{
  "head": {
    "x": 363,
    "y": 396,
    "top": 120,
    "right": 126,
    "bottom": 114,
    "left": 119
  },
  "feet": {
    "left": {
      "x": 887,
      "y": 325,
      "top": 71,
      "right": 33,
      "bottom": 72,
      "left": 57
    },
    "right": {
      "x": 984,
      "y": 548,
      "top": 54,
      "right": 46,
      "bottom": 42,
      "left": 62
    }
  } 
}
