{
  "head": {
    "x": 529,
    "y": 363,
    "top": 128,
    "right": 186,
    "bottom": 157,
    "left": 124
  },
  "feet": {
    "left": {
      "x": 1063,
      "y": 278,
      "top": 56,
      "right": 21,
      "bottom": 47,
      "left": 34
    },
    "right": {
      "x": 1107,
      "y": 358,
      "top": 26,
      "right": 41,
      "bottom": 32,
      "left": 63
    }
  } 
}
