{
  "head": {
    "x": 411,
    "y": 349,
    "top": 138,
    "right": 175,
    "bottom": 138,
    "left": 152
  },
  "feet": {
    "left": {
      "x": 943,
      "y": 337,
      "top": 20,
      "right": 47,
      "bottom": 24,
      "left": 43
    },
    "right": {
      "x": 1008,
      "y": 363,
      "top": 23,
      "right": 54,
      "bottom": 28,
      "left": 50
    }
  } 
}
