{
  "head": {
    "x": 567,
    "y": 292,
    "top": 135,
    "right": 124,
    "bottom": 123,
    "left": 126
  },
  "feet": {
    "left": {
      "x": 1224,
      "y": 414,
      "top": 62,
      "right": 37,
      "bottom": 39,
      "left": 41
    },
    "right": {
      "x": 1147,
      "y": 550,
      "top": 78,
      "right": 35,
      "bottom": 45,
      "left": 36
    }
  } 
}
