{
  "head": {
    "x": 487,
    "y": 259,
    "top": 122,
    "right": 140,
    "bottom": 123,
    "left": 118
  },
  "feet": {
    "left": {
      "x": 1060,
      "y": 508,
      "top": 42,
      "right": 27,
      "bottom": 39,
      "left": 27
    },
    "right": {
      "x": 1087,
      "y": 313,
      "top": 55,
      "right": 36,
      "bottom": 47,
      "left": 16    
    }
  } 
}
