{
  "head": {
    "x": 299,
    "y": 363,
    "top": 107,
    "right": 120,
    "bottom": 105,
    "left": 97
  },
  "feet": {
    "left": {
      "x": 894,
      "y": 380,
      "top": 32,
      "right": 36,
      "bottom": 54,
      "left": 38
    },
    "right": {
      "x": 825,
      "y": 341,
      "top": 37,
      "right": 48,
      "bottom": 40,
      "left": 36
    }
  } 
}
